200.0	0.007016791697067026
250.0	0.027868584197708924
300.0	0.021742718286000266
400.0	0.0003356800144926019
500.0	0.0008673786326499555
600.0	0.005545467782308491
700.0	0.00023876701476193465
800.0	0.00029588973438795027
950.0	0.0002818732666035135
1000.0	0.00021336135736114772
