200.0	0.000116062393225
250.0	7.67858527559e-05
300.0	7.38988743488e-05
350.0	8.2137516114e-05
400.0	8.17610124927e-05
450.0	8.12647224854e-05
500.0	7.6316434021e-05
550.0	7.68154014103e-05
700.0	6.69341385487e-05
750.0	6.64781837616e-05
800.0	6.32154755998e-05
850.0	6.21182920388e-05
900.0	6.06539488702e-05
1100.0	5.54154749377e-05
1200.0	5.33936476082e-05
1500.0	4.61542509543e-05
2000.0	3.7359339917e-05
