200.0	6.16163020514e-05
250.0	6.23959551124e-05
300.0	5.96130434087e-05
350.0	5.87028841976e-05
400.0	5.65812757574e-05
450.0	5.49150693291e-05
500.0	5.35045817026e-05
600.0	4.03508793691e-05
1000.0	7.56986997779e-05
1100.0	6.62032937567e-05
1200.0	3.90920945076e-05
1500.0	1.4060979869e-05
2000.0	1.20192754781e-05
