200.0	0.000618173601779
250.0	0.00041009604784
300.0	0.000431512482237
350.0	0.000500890430575
400.0	0.000527757300235
450.0	0.000553581326721
500.0	0.000539308775136
550.0	0.000572151477022
700.0	0.000551299277896
750.0	0.000570579170199
800.0	0.000556893733278
850.0	0.000566755829368
900.0	0.000571259947843
1100.0	0.000587380750367
1200.0	0.000599116297201
1500.0	0.00059609790624
2000.0	0.000592886881203
