250.0	5.84632289273e-05
300.0	0.000140034793895
350.0	0.00036878849415
400.0	0.000178984736408
450.0	6.40475685445e-05
550.0	7.02151337208e-05
600.0	5.91885646798e-05
650.0	4.66461057842e-05
700.0	7.30726596223e-05
750.0	0.000166501173184
800.0	0.000179219629498
850.0	4.26889690646e-05
900.0	0.000146945093433
950.0	0.000143296274728
1000.0	0.000131863820337
