250.0	0.000112589312394
300.0	6.84738128826e-05
350.0	0.000155478983083
400.0	0.000156888953225
450.0	0.000155020792295
500.0	0.000156121810113
600.0	0.000116221380762
750.0	0.000123315330911
800.0	7.92932526699e-05
850.0	7.90663662656e-05
950.0	5.76559172152e-05
1000.0	4.9804352074e-05
