200.0	8.18428644336e-05
300.0	5.92852703627e-05
350.0	6.56671457479e-05
400.0	6.85234233328e-05
450.0	7.32477233144e-05
500.0	6.93747098405e-05
550.0	6.82516486767e-05
600.0	6.63621590497e-05
650.0	6.65830529176e-05
700.0	7.26816508669e-05
750.0	6.94138573826e-05
800.0	6.32018474324e-05
850.0	6.3105543096e-05
900.0	6.32393460673e-05
950.0	6.3945362335e-05
1000.0	6.86082642171e-05
1100.0	7.38403828482e-05
1200.0	7.2375750538e-05
1500.0	6.0971297765e-05
2000.0	6.10503079307e-05
