300.0	0.0009728781413705367
350.0	0.01837573361855552
400.0	0.011978056857664563
450.0	0.006309958834109221
550.0	0.00021690677857548775
600.0	0.0002792354120055972
700.0	0.0025025300568038964
800.0	0.003525137339266538
850.0	0.0029341799876982325
900.0	0.0017155311769178365
950.0	0.0004594001104637519
1000.0	0.002384742240909999
