200.0	0.016066022193080568
250.0	0.002044327274852726
300.0	0.0012825430387301121
350.0	0.0010951065627155159
400.0	0.0014303411080464064
450.0	0.0018727148531723385
500.0	0.0017605937953145121
550.0	0.0012303290223901506
600.0	0.0008406866715621288
650.0	0.0010401146517449872
700.0	0.001029741192899388
750.0	0.0012276019923527133
800.0	0.0025026264433392256
850.0	0.0010810787038331234
900.0	0.0009887679627670059
950.0	0.0010817609983854708
1000.0	0.0011083199136687155
