200.0	0.000323070471878
250.0	0.000243525480189
300.0	0.000246493732628
350.0	0.000264702007714
400.0	0.000268806066766
450.0	0.000272305378518
500.0	0.000263890562207
550.0	0.000269827896892
700.0	0.00025325851349
750.0	0.000255159621687
800.0	0.000248350079885
850.0	0.000247943421595
900.0	0.000246109833478
1100.0	0.000239190071354
1200.0	0.000236465038382
1500.0	0.000220558248041
2000.0	0.000197396680952
