200.0	0.000771114545979
250.0	0.000818628888725
300.0	0.000825579822154
350.0	0.000820459801865
400.0	0.00081605426267
450.0	0.000815989898664
500.0	0.000817995118995
600.0	0.000652166043227
1000.0	0.00145011623843
1100.0	0.00132181917226
1200.0	0.000813570914997
1500.0	0.000325578642499
2000.0	0.000326741010902
