200.0	0.000246554433272
250.0	0.000255786164012
300.0	0.000253694679311
350.0	0.000247752376947
400.0	0.000242900869428
450.0	0.000239476162221
500.0	0.000236924475606
600.0	0.000184360314589
1000.0	0.000374130759004
1100.0	0.000334679532772
1200.0	0.00020268576746
1500.0	7.66636807849e-05
2000.0	6.9862156474e-05
