200.0	0.007075194395491786
250.0	0.002201526817438407
300.0	0.0016138265346086688
350.0	0.0014627765147951306
400.0	0.001648607870511744
450.0	0.00185680149920526
500.0	0.0017454846859133375
550.0	0.0013930987124327796
600.0	0.0010908415988928467
650.0	0.0012043559467499905
700.0	0.0011694767781297156
750.0	0.001263045701016793
800.0	0.001823494331705439
850.0	0.0011251664721050434
900.0	0.0010469597286298874
950.0	0.0010800089321192042
1000.0	0.001073403203896532
