250.0	0.000222533275899
300.0	0.000500354549804
350.0	0.00108007489368
400.0	0.000616929961185
450.0	0.000242998424432
550.0	0.000265376048384
600.0	0.000225202032807
650.0	0.000178635618412
700.0	0.000275660911262
750.0	0.000580612544835
800.0	0.000617604325886
850.0	0.000163771846758
900.0	0.000521753640539
950.0	0.000510494431896
1000.0	0.000474632154511
