200.0	1.83377032224e-05
300.0	1.32706941182e-05
350.0	1.47027844431e-05
400.0	1.53440768073e-05
450.0	1.64052796836e-05
500.0	1.5535251308e-05
550.0	1.52830482728e-05
600.0	1.48588087119e-05
650.0	1.49084001226e-05
700.0	1.62780907522e-05
750.0	1.55440432096e-05
800.0	1.41494497514e-05
850.0	1.4127837501e-05
900.0	1.41578651157e-05
950.0	1.43163145429e-05
1000.0	1.53631287267e-05
1100.0	1.65384525632e-05
1200.0	1.62093629565e-05
1500.0	1.36489385624e-05
2000.0	1.36666654608e-05
