250.0	0.000172467566942
300.0	0.000223136515113
350.0	0.0001921922813
550.0	0.000283770806877
600.0	0.000172882065137
650.0	0.000168646029036
700.0	0.000164349130468
800.0	0.000156756984416
850.0	0.000151920634436
900.0	0.000148513088696
950.0	0.000144891206735
1000.0	0.000141386802326
