250.0	0.000127084469276
300.0	0.000127084398074
350.0	0.000117768320367
400.0	0.00013130395194
450.0	0.00011849825227
500.0	0.000111304484582
550.0	0.000116875240039
600.0	0.000102648857165
650.0	0.000116646904826
700.0	0.00011086452015
750.0	9.61193836177e-05
800.0	0.000101058711519
850.0	0.000106043857183
900.0	0.000101338028146
950.0	9.21616986209e-05
1000.0	0.000102197443484
1100.0	9.55402426242e-05
1200.0	7.98758048549e-05
1500.0	0.000209894359289
2000.0	0.000126461798309
