300.0	0.0008768854815583327
350.0	0.018274177935479353
400.0	0.011876667848230701
450.0	0.006208999806258812
550.0	0.0001399937776064963
600.0	0.00019717559756241387
700.0	0.0024029525631021173
800.0	0.0034248958839514267
850.0	0.0028342658465930386
900.0	0.0016170024458826678
950.0	0.0003698417995690727
1000.0	0.0022852777440442915
