200.0	0.004656356369757331
250.0	0.01655013957011955
300.0	0.012121873038550838
400.0	0.00040717641162135563
500.0	0.000729792741902824
600.0	0.0030085059747246463
700.0	0.00030002420891783564
800.0	0.0003337981032168623
950.0	0.00031273845493257974
1000.0	0.0002610810106854549
