300.0	0.001865699585703432
350.0	0.03357819978668218
400.0	0.022623422781212807
450.0	0.012304459089655688
550.0	0.00047496714529575836
600.0	0.000617346945906648
700.0	0.005592622292010347
800.0	0.008217498296502269
850.0	0.006986296104559261
900.0	0.004169232256119598
950.0	0.0011406663538483428
1000.0	0.006026806870852114
