250.0	0.000691010508072
300.0	0.00069101012644
350.0	0.000641002187208
400.0	0.000713610421215
450.0	0.000644925723204
500.0	0.000606219703809
550.0	0.000636200493031
600.0	0.000559540223962
650.0	0.000634972625249
700.0	0.000603849778965
750.0	0.000524253629016
800.0	0.000550952398281
850.0	0.000577862926219
900.0	0.000552461157734
950.0	0.000502836475058
1000.0	0.000557102671049
1100.0	0.000521120925021
1200.0	0.000436221313175
1500.0	0.00112780852493
2000.0	0.000687672742458
