250.0	0.000424437377439
300.0	0.000449039570999
350.0	0.000418312691115
400.0	0.000485016879562
450.0	0.000448734368833
500.0	0.000432670363072
550.0	0.000468912850842
600.0	0.000419970775918
650.0	0.000493955865659
700.0	0.000479860471785
750.0	0.000422468940102
800.0	0.00045619130011
850.0	0.00049154040092
900.0	0.000478869978311
950.0	0.000442301214822
1000.0	0.000504786112608
1100.0	0.000489518185464
1200.0	0.000420821806778
1500.0	0.00146671453644
2000.0	0.000951715588342
