200.0	0.000136059526479
250.0	0.00013773927061
300.0	0.0001317369293
350.0	0.000129769894809
400.0	0.00012517728095
450.0	0.000121563345988
500.0	0.0001184992631
600.0	8.97290417614e-05
1000.0	0.000166165354679
1100.0	0.000145920867832
1200.0	8.69588234405e-05
1500.0	3.14197566414e-05
2000.0	2.68624460284e-05
