250.0	0.00022935576613
300.0	0.000670628001438
350.0	0.00226572469854
400.0	0.00096620625978
450.0	0.000291096881045
550.0	0.000344796061004
600.0	0.000292520452993
650.0	0.000230949920673
700.0	0.000395509187228
750.0	0.00116788067425
800.0	0.00133612633623
850.0	0.00023171416605
900.0	0.00109386041733
950.0	0.0010917558004
1000.0	0.0010057906405
