200.0	0.0027615463174999336
250.0	0.00048168487791838975
300.0	0.00032778797233491827
350.0	0.00029204330033687415
400.0	0.0003362265489179268
450.0	0.0003884424442783569
500.0	0.00036015519402870453
550.0	0.0002760323300927501
600.0	0.00020978438097515797
650.0	0.0002340821139258474
700.0	0.00022654510868153844
750.0	0.0002469120718703222
800.0	0.0003798882528112528
850.0	0.000217061825984671
900.0	0.0002005656227457817
950.0	0.00020749987817433586
1000.0	0.00020610963302253476
