200.0	4.57167082053e-06
300.0	3.09622656846e-06
350.0	3.46428588153e-06
400.0	3.55844241765e-06
450.0	3.75024247642e-06
500.0	3.49608408067e-06
550.0	3.38785243169e-06
600.0	3.2513184448e-06
650.0	3.21857411042e-06
700.0	3.4723487012e-06
750.0	3.27685808223e-06
800.0	2.94610873039e-06
850.0	2.90970594999e-06
900.0	2.88586078842e-06
950.0	2.88664236704e-06
1000.0	3.06876391821e-06
1100.0	3.2441169536e-06
1200.0	3.12540484982e-06
1500.0	2.50883439235e-06
2000.0	2.35572328467e-06
