200.0	3.75631337629e-06
300.0	2.5355922419e-06
350.0	2.83906410674e-06
400.0	2.91680167725e-06
450.0	3.07529314444e-06
500.0	2.86531247774e-06
550.0	2.77599087734e-06
600.0	2.66339164137e-06
650.0	2.6364004075e-06
700.0	2.84571923257e-06
750.0	2.68444746837e-06
800.0	2.4119934218e-06
850.0	2.38203599007e-06
900.0	2.36241580233e-06
950.0	2.36305886012e-06
1000.0	2.51297363197e-06
1100.0	2.65745501059e-06
1200.0	2.559627542e-06
1500.0	2.05249760102e-06
2000.0	1.92679357055e-06
