200.0	0.06823073755278516
250.0	0.2842228549687473
300.0	0.22915453458160814
400.0	0.0035391175382697804
500.0	0.010034983445197142
600.0	0.06891001694787281
700.0	0.002835565102500881
800.0	0.0037355964521199876
950.0	0.003765458828872861
1000.0	0.0028336867173770334
