200.0	0.000176517003415
250.0	0.000117895907498
300.0	0.000119948652049
350.0	0.000132791816821
400.0	0.000135743777501
450.0	0.000138276667681
500.0	0.000132210580655
550.0	0.000136481902988
700.0	0.000124670594103
750.0	0.000126008319224
800.0	0.000121238423862
850.0	0.0001209554906
900.0	0.000119682494915
1100.0	0.000114919152525
1200.0	0.00011306136047
1500.0	0.000102428597542
2000.0	8.76351068126e-05
