250.0	9.89296830793e-05
300.0	9.89296271197e-05
350.0	9.16150436546e-05
400.0	0.000102247411884
450.0	9.21876453829e-05
500.0	8.65480739346e-05
550.0	9.09145737823e-05
600.0	7.97728366825e-05
650.0	9.07355038287e-05
700.0	8.62034217111e-05
750.0	7.4668917194e-05
800.0	7.85293178825e-05
850.0	8.24289840639e-05
900.0	7.87477221492e-05
950.0	7.15780946326e-05
1000.0	7.94197879298e-05
1100.0	7.42164979907e-05
1200.0	6.19957245157e-05
1500.0	0.000164678898534
2000.0	9.84403409038e-05
