200.0	0.00289097360215513
250.0	0.0005581972006621569
300.0	0.0003879388173373287
350.0	0.0003474340577651825
400.0	0.0003974413981083169
450.0	0.0004557733322174886
500.0	0.00042426990686540575
550.0	0.0003291518179272333
600.0	0.0002525209490947552
650.0	0.0002808164237107914
700.0	0.0002720632866231132
750.0	0.0002956676256947069
800.0	0.00044626981558108683
850.0	0.0002610192970484897
900.0	0.00024172651645505445
950.0	0.00024984901170410433
1000.0	0.0002482220135678849
