300.0	0.0016433758672337658
350.0	0.03333799334256181
400.0	0.022383729184084863
450.0	0.01206608343647308
550.0	0.00030294664227126873
600.0	0.0004309394638001663
700.0	0.0053577106229407544
800.0	0.007980558943328015
850.0	0.0067501183976287635
900.0	0.003936484626077442
950.0	0.0009300915453016561
1000.0	0.005791438106334726
