200.0	0.000240859545994
250.0	0.000179458544108
300.0	0.000174521958159
350.0	0.00018842134082
400.0	0.000187798355472
450.0	0.000186975467064
500.0	0.000178660907607
550.0	0.000179508688992
700.0	0.000162285766906
750.0	0.000161467321134
800.0	0.000155543116625
850.0	0.000153523256208
900.0	0.00015080476261
1100.0	0.000140853277978
1200.0	0.000136910740542
1500.0	0.000122269229786
2000.0	0.000103189892553
