250.0	0.002029531404
300.0	0.00210417978621
350.0	0.00193519276264
400.0	0.00218942410321
450.0	0.00200869239832
500.0	0.00191621449674
550.0	0.00204068980486
600.0	0.00181744226541
650.0	0.00209004642113
700.0	0.00201317839535
750.0	0.0017674493512
800.0	0.00187873329113
850.0	0.00199183443236
900.0	0.00192393633505
950.0	0.00177021991386
1000.0	0.00198067355728
1100.0	0.00188754152523
1200.0	0.0016068072141
1500.0	0.00434948035688
2000.0	0.00282732247421
