549.3243243243244 0.008844686917671075
615.5405405405405 0.00642771884524013
759.4594594594594 0.0031882656662750187
875.6756756756756 0.0020105623032128394
1008.7837837837837 0.0014257009402446979
1244.5945945945946 9.015219459560221E-4
1360.135135135135 7.091055760701648E-4
1445.9459459459458 5.938772413019054E-4
1595.2702702702702 4.5331292739026553E-4
1715.5405405405404 3.704421355155708E-4
1835.8108108108108 3.094007249955062E-4
1957.4324324324323 2.556130005497109E-4
2359.4594594594596 1.5600120826781373E-4
2610.1351351351354 1.1555698670246332E-4
2800.0 9.443184683535716E-5
2985.810810810811 7.759083517010474E-5
3002.027027027027 7.695838125650856E-5
