129.74683544303798 0.3571457845608071
143.98734177215192 0.2782559402207124
158.2278481012658 0.23364887035358592
185.12658227848107 0.4148453045435308
197.78481012658227 0.46706432199707254
219.93670886075955 0.4279926534575914
254.74683544303804 0.32321022745336236
254.74683544303804 0.32321022745336236
280.06329113924056 0.250249940988245
287.9746835443038 0.25657485500003857
319.620253164557 0.20367751582919774
401.8987341772152 0.12675964954302313
487.34177215189874 0.08344670911417774
547.4683544303798 0.06108124197821617
667.7215189873418 0.038974980615300345
775.3164556962024 0.028528868871294678
914.5569620253164 0.01866391337207197
1001.5822784810125 0.015381258460038908
1101.26582278481 0.013159554662810068
1218.3544303797469 0.011400150089399926
1335.4430379746834 0.009753486598996905
